graycodebcd/simulation/qsim/graycodebcd.msim.vcd
$comment
	File created using the following command:
		vcd file graycodebcd.msim.vcd -direction
$end
$date
	Sun Oct 06 14:09:55 2019
$end
$version
	ModelSim Version 10.5b
$end
$timescale
	1ps
$end

$scope module graycodebcd_vhd_vec_tst $end
$var wire 1 ! bcd [6] $end
$var wire 1 " bcd [5] $end
$var wire 1 # bcd [4] $end
$var wire 1 $ bcd [3] $end
$var wire 1 % bcd [2] $end
$var wire 1 & bcd [1] $end
$var wire 1 ' bcd [0] $end
$var wire 1 ( clk $end
$var wire 1 ) graycode [3] $end
$var wire 1 * graycode [2] $end
$var wire 1 + graycode [1] $end
$var wire 1 , graycode [0] $end

$scope module i1 $end
$var wire 1 - gnd $end
$var wire 1 . vcc $end
$var wire 1 / unknown $end
$var wire 1 0 devoe $end
$var wire 1 1 devclrn $end
$var wire 1 2 devpor $end
$var wire 1 3 ww_devoe $end
$var wire 1 4 ww_devclrn $end
$var wire 1 5 ww_devpor $end
$var wire 1 6 ww_clk $end
$var wire 1 7 ww_graycode [3] $end
$var wire 1 8 ww_graycode [2] $end
$var wire 1 9 ww_graycode [1] $end
$var wire 1 : ww_graycode [0] $end
$var wire 1 ; ww_bcd [6] $end
$var wire 1 < ww_bcd [5] $end
$var wire 1 = ww_bcd [4] $end
$var wire 1 > ww_bcd [3] $end
$var wire 1 ? ww_bcd [2] $end
$var wire 1 @ ww_bcd [1] $end
$var wire 1 A ww_bcd [0] $end
$var wire 1 B \clk~inputclkctrl_INCLK_bus\ [3] $end
$var wire 1 C \clk~inputclkctrl_INCLK_bus\ [2] $end
$var wire 1 D \clk~inputclkctrl_INCLK_bus\ [1] $end
$var wire 1 E \clk~inputclkctrl_INCLK_bus\ [0] $end
$var wire 1 F \bcd[0]~output_o\ $end
$var wire 1 G \bcd[1]~output_o\ $end
$var wire 1 H \bcd[2]~output_o\ $end
$var wire 1 I \bcd[3]~output_o\ $end
$var wire 1 J \bcd[4]~output_o\ $end
$var wire 1 K \bcd[5]~output_o\ $end
$var wire 1 L \bcd[6]~output_o\ $end
$var wire 1 M \clk~input_o\ $end
$var wire 1 N \clk~inputclkctrl_outclk\ $end
$var wire 1 O \graycode[1]~input_o\ $end
$var wire 1 P \graycode[2]~input_o\ $end
$var wire 1 Q \graycode[3]~input_o\ $end
$var wire 1 R \graycode[0]~input_o\ $end
$var wire 1 S \bcd~0_combout\ $end
$var wire 1 T \bcd[0]~1_combout\ $end
$var wire 1 U \bcd[0]~reg0_q\ $end
$var wire 1 V \bcd~2_combout\ $end
$var wire 1 W \bcd[1]~reg0_q\ $end
$var wire 1 X \bcd~3_combout\ $end
$var wire 1 Y \bcd[2]~reg0_q\ $end
$var wire 1 Z \bcd~4_combout\ $end
$var wire 1 [ \bcd[3]~reg0_q\ $end
$var wire 1 \ \bcd~5_combout\ $end
$var wire 1 ] \bcd[4]~reg0_q\ $end
$var wire 1 ^ \bcd~6_combout\ $end
$var wire 1 _ \bcd[5]~reg0_q\ $end
$var wire 1 ` \bcd~7_combout\ $end
$var wire 1 a \bcd[6]~reg0_q\ $end
$upscope $end
$upscope $end
$enddefinitions $end
#0
$dumpvars
0(
0-
1.
x/
10
11
12
13
14
15
06
0F
0G
0H
0I
0J
0K
0L
0M
0N
0O
0P
0Q
0R
0S
1T
0U
1V
0W
1X
0Y
1Z
0[
1\
0]
1^
0_
1`
0a
0)
0*
0+
0,
0!
0"
0#
0$
0%
0&
0'
07
08
09
0:
0;
0<
0=
0>
0?
0@
0A
1B
1C
1D
0E
$end
#1000
1(
16
1M
1E
1N
1W
1Y
1[
1]
1_
1a
1L
1K
1J
1I
1H
1G
1;
1<
1=
1>
1?
1@
1&
1%
1$
1#
1"
1!
#2000
0(
06
0M
0E
0N
#3000
1(
16
1M
1E
1N
#4000
0(
06
0M
0E
0N
#5000
1(
16
1M
1E
1N
#6000
0(
06
0M
0E
0N
#7000
1(
16
1M
1E
1N
#8000
0(
06
0M
0E
0N
#9000
1(
16
1M
1E
1N
#10000
0(
06
0M
0E
0N
#11000
1(
16
1M
1E
1N
#12000
0(
06
0M
0E
0N
#13000
1(
16
1M
1E
1N
#14000
0(
06
0M
0E
0N
#15000
1(
16
1M
1E
1N
#16000
0(
06
0M
0E
0N
#17000
1(
16
1M
1E
1N
#18000
0(
06
0M
0E
0N
#19000
1(
16
1M
1E
1N
#20000
0(
1,
06
1:
1R
0M
0E
0V
0X
0Z
0`
0N
#21000
1(
16
1M
1E
1N
0W
0Y
0[
0a
0L
0I
0H
0G
0;
0>
0?
0@
0&
0%
0$
0!
#22000
0(
06
0M
0E
0N
#23000
1(
16
1M
1E
1N
#24000
0(
06
0M
0E
0N
#25000
1(
16
1M
1E
1N
#26000
0(
06
0M
0E
0N
#27000
1(
16
1M
1E
1N
#28000
0(
06
0M
0E
0N
#29000
1(
16
1M
1E
1N
#30000
0(
06
0M
0E
0N
#31000
1(
16
1M
1E
1N
#32000
0(
06
0M
0E
0N
#33000
1(
16
1M
1E
1N
#34000
0(
06
0M
0E
0N
#35000
1(
16
1M
1E
1N
#36000
0(
06
0M
0E
0N
#37000
1(
16
1M
1E
1N
#38000
0(
06
0M
0E
0N
#39000
1(
16
1M
1E
1N
#40000
0(
0,
1+
06
0:
19
1O
0R
0M
0E
1S
1Z
1`
0N
#41000
1(
16
1M
1E
1N
1U
1[
1a
1L
1I
1F
1;
1>
1A
1'
1$
1!
#42000
0(
06
0M
0E
0N
#43000
1(
16
1M
1E
1N
#44000
0(
06
0M
0E
0N
#45000
1(
16
1M
1E
1N
#46000
0(
06
0M
0E
0N
#47000
1(
16
1M
1E
1N
#48000
0(
06
0M
0E
0N
#49000
1(
16
1M
1E
1N
#50000
0(
06
0M
0E
0N
#51000
1(
16
1M
1E
1N
#52000
0(
06
0M
0E
0N
#53000
1(
16
1M
1E
1N
#54000
0(
06
0M
0E
0N
#55000
1(
16
1M
1E
1N
#56000
0(
06
0M
0E
0N
#57000
1(
16
1M
1E
1N
#58000
0(
06
0M
0E
0N
#59000
1(
16
1M
1E
1N
#60000
0(
1,
06
1:
1R
0M
0E
1X
0\
0N
#61000
1(
16
1M
1E
1N
1Y
0]
0J
1H
0=
1?
1%
0#
#62000
0(
06
0M
0E
0N
#63000
1(
16
1M
1E
1N
#64000
0(
06
0M
0E
0N
#65000
1(
16
1M
1E
1N
#66000
0(
06
0M
0E
0N
#67000
1(
16
1M
1E
1N
#68000
0(
06
0M
0E
0N
#69000
1(
16
1M
1E
1N
#70000
0(
06
0M
0E
0N
#71000
1(
16
1M
1E
1N
#72000
0(
06
0M
0E
0N
#73000
1(
16
1M
1E
1N
#74000
0(
06
0M
0E
0N
#75000
1(
16
1M
1E
1N
#76000
0(
06
0M
0E
0N
#77000
1(
16
1M
1E
1N
#78000
0(
06
0M
0E
0N
#79000
1(
16
1M
1E
1N
#80000
0(
0,
0+
1*
06
0:
09
18
1P
0O
0R
0M
0E
0S
0X
0Z
1\
0N
#81000
1(
16
1M
1E
1N
0U
0Y
0[
1]
1J
0I
0H
0F
1=
0>
0?
0A
0'
0%
0$
1#
#82000
0(
06
0M
0E
0N
#83000
1(
16
1M
1E
1N
#84000
0(
06
0M
0E
0N
#85000
1(
16
1M
1E
1N
#86000
0(
06
0M
0E
0N
#87000
1(
16
1M
1E
1N
#88000
0(
06
0M
0E
0N
#89000
1(
16
1M
1E
1N
#90000
0(
06
0M
0E
0N
#91000
1(
16
1M
1E
1N
#92000
0(
06
0M
0E
0N
#93000
1(
16
1M
1E
1N
#94000
0(
06
0M
0E
0N
#95000
1(
16
1M
1E
1N
#96000
0(
06
0M
0E
0N
#97000
1(
16
1M
1E
1N
#98000
0(
06
0M
0E
0N
#99000
1(
16
1M
1E
1N
#100000
0(
1,
06
1:
1R
0M
0E
1S
1V
1X
1Z
0^
0N
#101000
1(
16
1M
1E
1N
1U
1W
1Y
1[
0_
0K
1I
1H
1G
1F
0<
1>
1?
1@
1A
1'
1&
1%
1$
0"
#102000
0(
06
0M
0E
0N
#103000
1(
16
1M
1E
1N
#104000
0(
06
0M
0E
0N
#105000
1(
16
1M
1E
1N
#106000
0(
06
0M
0E
0N
#107000
1(
16
1M
1E
1N
#108000
0(
06
0M
0E
0N
#109000
1(
16
1M
1E
1N
#110000
0(
06
0M
0E
0N
#111000
1(
16
1M
1E
1N
#112000
0(
06
0M
0E
0N
#113000
1(
16
1M
1E
1N
#114000
0(
06
0M
0E
0N
#115000
1(
16
1M
1E
1N
#116000
0(
06
0M
0E
0N
#117000
1(
16
1M
1E
1N
#118000
0(
06
0M
0E
0N
#119000
1(
16
1M
1E
1N
#120000
0(
0,
1+
06
0:
19
1O
0R
0M
0E
1^
0X
0Z
0`
0N
#121000
1(
16
1M
1E
1N
0Y
0[
1_
0a
0L
1K
0I
0H
0;
1<
0>
0?
0%
0$
1"
0!
#122000
0(
06
0M
0E
0N
#123000
1(
16
1M
1E
1N
#124000
0(
06
0M
0E
0N
#125000
1(
16
1M
1E
1N
#126000
0(
06
0M
0E
0N
#127000
1(
16
1M
1E
1N
#128000
0(
06
0M
0E
0N
#129000
1(
16
1M
1E
1N
#130000
0(
06
0M
0E
0N
#131000
1(
16
1M
1E
1N
#132000
0(
06
0M
0E
0N
#133000
1(
16
1M
1E
1N
#134000
0(
06
0M
0E
0N
#135000
1(
16
1M
1E
1N
#136000
0(
06
0M
0E
0N
#137000
1(
16
1M
1E
1N
#138000
0(
06
0M
0E
0N
#139000
1(
16
1M
1E
1N
#140000
0(
1,
06
1:
1R
0M
0E
1Z
0^
1`
0N
#141000
1(
16
1M
1E
1N
1[
0_
1a
1L
0K
1I
1;
0<
1>
1$
0"
1!
#142000
0(
06
0M
0E
0N
#143000
1(
16
1M
1E
1N
#144000
0(
06
0M
0E
0N
#145000
1(
16
1M
1E
1N
#146000
0(
06
0M
0E
0N
#147000
1(
16
1M
1E
1N
#148000
0(
06
0M
0E
0N
#149000
1(
16
1M
1E
1N
#150000
0(
06
0M
0E
0N
#151000
1(
16
1M
1E
1N
#152000
0(
06
0M
0E
0N
#153000
1(
16
1M
1E
1N
#154000
0(
06
0M
0E
0N
#155000
1(
16
1M
1E
1N
#156000
0(
06
0M
0E
0N
#157000
1(
16
1M
1E
1N
#158000
0(
06
0M
0E
0N
#159000
1(
16
1M
1E
1N
#160000
0(
0,
0+
0*
1)
06
0:
09
08
17
1Q
0P
0O
0R
0M
0E
0T
1X
1^
0N
#161000
1(
16
1M
1E
1N
#162000
0(
06
0M
0E
0N
#163000
1(
16
1M
1E
1N
#164000
0(
06
0M
0E
0N
#165000
1(
16
1M
1E
1N
#166000
0(
06
0M
0E
0N
#167000
1(
16
1M
1E
1N
#168000
0(
06
0M
0E
0N
#169000
1(
16
1M
1E
1N
#170000
0(
06
0M
0E
0N
#171000
1(
16
1M
1E
1N
#172000
0(
06
0M
0E
0N
#173000
1(
16
1M
1E
1N
#174000
0(
06
0M
0E
0N
#175000
1(
16
1M
1E
1N
#176000
0(
06
0M
0E
0N
#177000
1(
16
1M
1E
1N
#178000
0(
06
0M
0E
0N
#179000
1(
16
1M
1E
1N
#180000
0(
1,
06
1:
1R
0M
0E
0X
0Z
0N
#181000
1(
16
1M
1E
1N
#182000
0(
06
0M
0E
0N
#183000
1(
16
1M
1E
1N
#184000
0(
06
0M
0E
0N
#185000
1(
16
1M
1E
1N
#186000
0(
06
0M
0E
0N
#187000
1(
16
1M
1E
1N
#188000
0(
06
0M
0E
0N
#189000
1(
16
1M
1E
1N
#190000
0(
06
0M
0E
0N
#191000
1(
16
1M
1E
1N
#192000
0(
06
0M
0E
0N
#193000
1(
16
1M
1E
1N
#194000
0(
06
0M
0E
0N
#195000
1(
16
1M
1E
1N
#196000
0(
06
0M
0E
0N
#197000
1(
16
1M
1E
1N
#198000
0(
06
0M
0E
0N
#199000
1(
16
1M
1E
1N
#200000
0(
0,
1+
06
0:
19
1O
0R
0M
0E
1X
1Z
0N
#201000
1(
16
1M
1E
1N
#202000
0(
06
0M
0E
0N
#203000
1(
16
1M
1E
1N
#204000
0(
06
0M
0E
0N
#205000
1(
16
1M
1E
1N
#206000
0(
06
0M
0E
0N
#207000
1(
16
1M
1E
1N
#208000
0(
06
0M
0E
0N
#209000
1(
16
1M
1E
1N
#210000
0(
06
0M
0E
0N
#211000
1(
16
1M
1E
1N
#212000
0(
06
0M
0E
0N
#213000
1(
16
1M
1E
1N
#214000
0(
06
0M
0E
0N
#215000
1(
16
1M
1E
1N
#216000
0(
06
0M
0E
0N
#217000
1(
16
1M
1E
1N
#218000
0(
06
0M
0E
0N
#219000
1(
16
1M
1E
1N
#220000
0(
1,
06
1:
1R
0M
0E
0X
0Z
0N
#221000
1(
16
1M
1E
1N
#222000
0(
06
0M
0E
0N
#223000
1(
16
1M
1E
1N
#224000
0(
06
0M
0E
0N
#225000
1(
16
1M
1E
1N
#226000
0(
06
0M
0E
0N
#227000
1(
16
1M
1E
1N
#228000
0(
06
0M
0E
0N
#229000
1(
16
1M
1E
1N
#230000
0(
06
0M
0E
0N
#231000
1(
16
1M
1E
1N
#232000
0(
06
0M
0E
0N
#233000
1(
16
1M
1E
1N
#234000
0(
06
0M
0E
0N
#235000
1(
16
1M
1E
1N
#236000
0(
06
0M
0E
0N
#237000
1(
16
1M
1E
1N
#238000
0(
06
0M
0E
0N
#239000
1(
16
1M
1E
1N
#240000
0(
0,
0+
1*
06
0:
09
18
1P
0O
0R
0M
0E
1T
1X
1Z
0N
#241000
1(
16
1M
1E
1N
1Y
1_
1K
1H
1<
1?
1%
1"
#242000
0(
06
0M
0E
0N
#243000
1(
16
1M
1E
1N
#244000
0(
06
0M
0E
0N
#245000
1(
16
1M
1E
1N
#246000
0(
06
0M
0E
0N
#247000
1(
16
1M
1E
1N
#248000
0(
06
0M
0E
0N
#249000
1(
16
1M
1E
1N
#250000
0(
06
0M
0E
0N
#251000
1(
16
1M
1E
1N
#252000
0(
06
0M
0E
0N
#253000
1(
16
1M
1E
1N
#254000
0(
06
0M
0E
0N
#255000
1(
16
1M
1E
1N
#256000
0(
06
0M
0E
0N
#257000
1(
16
1M
1E
1N
#258000
0(
06
0M
0E
0N
#259000
1(
16
1M
1E
1N
#260000
0(
1,
06
1:
1R
0M
0E
0X
0Z
0N
#261000
1(
16
1M
1E
1N
0Y
0[
0I
0H
0>
0?
0%
0$
#262000
0(
06
0M
0E
0N
#263000
1(
16
1M
1E
1N
#264000
0(
06
0M
0E
0N
#265000
1(
16
1M
1E
1N
#266000
0(
06
0M
0E
0N
#267000
1(
16
1M
1E
1N
#268000
0(
06
0M
0E
0N
#269000
1(
16
1M
1E
1N
#270000
0(
06
0M
0E
0N
#271000
1(
16
1M
1E
1N
#272000
0(
06
0M
0E
0N
#273000
1(
16
1M
1E
1N
#274000
0(
06
0M
0E
0N
#275000
1(
16
1M
1E
1N
#276000
0(
06
0M
0E
0N
#277000
1(
16
1M
1E
1N
#278000
0(
06
0M
0E
0N
#279000
1(
16
1M
1E
1N
#280000
0(
0,
1+
06
0:
19
1O
0R
0M
0E
0T
1X
1Z
0N
#281000
1(
16
1M
1E
1N
#282000
0(
06
0M
0E
0N
#283000
1(
16
1M
1E
1N
#284000
0(
06
0M
0E
0N
#285000
1(
16
1M
1E
1N
#286000
0(
06
0M
0E
0N
#287000
1(
16
1M
1E
1N
#288000
0(
06
0M
0E
0N
#289000
1(
16
1M
1E
1N
#290000
0(
06
0M
0E
0N
#291000
1(
16
1M
1E
1N
#292000
0(
06
0M
0E
0N
#293000
1(
16
1M
1E
1N
#294000
0(
06
0M
0E
0N
#295000
1(
16
1M
1E
1N
#296000
0(
06
0M
0E
0N
#297000
1(
16
1M
1E
1N
#298000
0(
06
0M
0E
0N
#299000
1(
16
1M
1E
1N
#300000
0(
1,
06
1:
1R
0M
0E
0X
0Z
0N
#301000
1(
16
1M
1E
1N
#302000
0(
06
0M
0E
0N
#303000
1(
16
1M
1E
1N
#304000
0(
06
0M
0E
0N
#305000
1(
16
1M
1E
1N
#306000
0(
06
0M
0E
0N
#307000
1(
16
1M
1E
1N
#308000
0(
06
0M
0E
0N
#309000
1(
16
1M
1E
1N
#310000
0(
06
0M
0E
0N
#311000
1(
16
1M
1E
1N
#312000
0(
06
0M
0E
0N
#313000
1(
16
1M
1E
1N
#314000
0(
06
0M
0E
0N
#315000
1(
16
1M
1E
1N
#316000
0(
06
0M
0E
0N
#317000
1(
16
1M
1E
1N
#318000
0(
06
0M
0E
0N
#319000
1(
16
1M
1E
1N
#320000
0(
0,
0+
0*
0)
06
0:
09
08
07
0Q
0P
0O
0R
0M
0E
0S
1T
1X
1Z
0N
#321000
1(
16
1M
1E
1N
0U
1Y
1[
1I
1H
0F
1>
1?
0A
0'
1%
1$
#322000
0(
06
0M
0E
0N
#323000
1(
16
1M
1E
1N
#324000
0(
06
0M
0E
0N
#325000
1(
16
1M
1E
1N
#326000
0(
06
0M
0E
0N
#327000
1(
16
1M
1E
1N
#328000
0(
06
0M
0E
0N
#329000
1(
16
1M
1E
1N
#330000
0(
06
0M
0E
0N
#331000
1(
16
1M
1E
1N
#332000
0(
06
0M
0E
0N
#333000
1(
16
1M
1E
1N
#334000
0(
06
0M
0E
0N
#335000
1(
16
1M
1E
1N
#336000
0(
06
0M
0E
0N
#337000
1(
16
1M
1E
1N
#338000
0(
06
0M
0E
0N
#339000
1(
16
1M
1E
1N
#340000
0(
1,
06
1:
1R
0M
0E
0V
0X
0Z
0`
0N
#341000
1(
16
1M
1E
1N
0W
0Y
0[
0a
0L
0I
0H
0G
0;
0>
0?
0@
0&
0%
0$
0!
#342000
0(
06
0M
0E
0N
#343000
1(
16
1M
1E
1N
#344000
0(
06
0M
0E
0N
#345000
1(
16
1M
1E
1N
#346000
0(
06
0M
0E
0N
#347000
1(
16
1M
1E
1N
#348000
0(
06
0M
0E
0N
#349000
1(
16
1M
1E
1N
#350000
0(
06
0M
0E
0N
#351000
1(
16
1M
1E
1N
#352000
0(
06
0M
0E
0N
#353000
1(
16
1M
1E
1N
#354000
0(
06
0M
0E
0N
#355000
1(
16
1M
1E
1N
#356000
0(
06
0M
0E
0N
#357000
1(
16
1M
1E
1N
#358000
0(
06
0M
0E
0N
#359000
1(
16
1M
1E
1N
#360000
0(
0,
1+
06
0:
19
1O
0R
0M
0E
1S
1Z
1`
0N
#361000
1(
16
1M
1E
1N
1U
1[
1a
1L
1I
1F
1;
1>
1A
1'
1$
1!
#362000
0(
06
0M
0E
0N
#363000
1(
16
1M
1E
1N
#364000
0(
06
0M
0E
0N
#365000
1(
16
1M
1E
1N
#366000
0(
06
0M
0E
0N
#367000
1(
16
1M
1E
1N
#368000
0(
06
0M
0E
0N
#369000
1(
16
1M
1E
1N
#370000
0(
06
0M
0E
0N
#371000
1(
16
1M
1E
1N
#372000
0(
06
0M
0E
0N
#373000
1(
16
1M
1E
1N
#374000
0(
06
0M
0E
0N
#375000
1(
16
1M
1E
1N
#376000
0(
06
0M
0E
0N
#377000
1(
16
1M
1E
1N
#378000
0(
06
0M
0E
0N
#379000
1(
16
1M
1E
1N
#380000
0(
1,
06
1:
1R
0M
0E
1X
0\
0N
#381000
1(
16
1M
1E
1N
1Y
0]
0J
1H
0=
1?
1%
0#
#382000
0(
06
0M
0E
0N
#383000
1(
16
1M
1E
1N
#384000
0(
06
0M
0E
0N
#385000
1(
16
1M
1E
1N
#386000
0(
06
0M
0E
0N
#387000
1(
16
1M
1E
1N
#388000
0(
06
0M
0E
0N
#389000
1(
16
1M
1E
1N
#390000
0(
06
0M
0E
0N
#391000
1(
16
1M
1E
1N
#392000
0(
06
0M
0E
0N
#393000
1(
16
1M
1E
1N
#394000
0(
06
0M
0E
0N
#395000
1(
16
1M
1E
1N
#396000
0(
06
0M
0E
0N
#397000
1(
16
1M
1E
1N
#398000
0(
06
0M
0E
0N
#399000
1(
16
1M
1E
1N
#400000
0(
0,
0+
1*
06
0:
09
18
1P
0O
0R
0M
0E
0S
0X
0Z
1\
0N
#401000
1(
16
1M
1E
1N
0U
0Y
0[
1]
1J
0I
0H
0F
1=
0>
0?
0A
0'
0%
0$
1#
#402000
0(
06
0M
0E
0N
#403000
1(
16
1M
1E
1N
#404000
0(
06
0M
0E
0N
#405000
1(
16
1M
1E
1N
#406000
0(
06
0M
0E
0N
#407000
1(
16
1M
1E
1N
#408000
0(
06
0M
0E
0N
#409000
1(
16
1M
1E
1N
#410000
0(
06
0M
0E
0N
#411000
1(
16
1M
1E
1N
#412000
0(
06
0M
0E
0N
#413000
1(
16
1M
1E
1N
#414000
0(
06
0M
0E
0N
#415000
1(
16
1M
1E
1N
#416000
0(
06
0M
0E
0N
#417000
1(
16
1M
1E
1N
#418000
0(
06
0M
0E
0N
#419000
1(
16
1M
1E
1N
#420000
0(
1,
06
1:
1R
0M
0E
1S
1V
1X
1Z
0^
0N
#421000
1(
16
1M
1E
1N
1U
1W
1Y
1[
0_
0K
1I
1H
1G
1F
0<
1>
1?
1@
1A
1'
1&
1%
1$
0"
#422000
0(
06
0M
0E
0N
#423000
1(
16
1M
1E
1N
#424000
0(
06
0M
0E
0N
#425000
1(
16
1M
1E
1N
#426000
0(
06
0M
0E
0N
#427000
1(
16
1M
1E
1N
#428000
0(
06
0M
0E
0N
#429000
1(
16
1M
1E
1N
#430000
0(
06
0M
0E
0N
#431000
1(
16
1M
1E
1N
#432000
0(
06
0M
0E
0N
#433000
1(
16
1M
1E
1N
#434000
0(
06
0M
0E
0N
#435000
1(
16
1M
1E
1N
#436000
0(
06
0M
0E
0N
#437000
1(
16
1M
1E
1N
#438000
0(
06
0M
0E
0N
#439000
1(
16
1M
1E
1N
#440000
0(
0,
1+
06
0:
19
1O
0R
0M
0E
1^
0X
0Z
0`
0N
#441000
1(
16
1M
1E
1N
0Y
0[
1_
0a
0L
1K
0I
0H
0;
1<
0>
0?
0%
0$
1"
0!
#442000
0(
06
0M
0E
0N
#443000
1(
16
1M
1E
1N
#444000
0(
06
0M
0E
0N
#445000
1(
16
1M
1E
1N
#446000
0(
06
0M
0E
0N
#447000
1(
16
1M
1E
1N
#448000
0(
06
0M
0E
0N
#449000
1(
16
1M
1E
1N
#450000
0(
06
0M
0E
0N
#451000
1(
16
1M
1E
1N
#452000
0(
06
0M
0E
0N
#453000
1(
16
1M
1E
1N
#454000
0(
06
0M
0E
0N
#455000
1(
16
1M
1E
1N
#456000
0(
06
0M
0E
0N
#457000
1(
16
1M
1E
1N
#458000
0(
06
0M
0E
0N
#459000
1(
16
1M
1E
1N
#460000
0(
1,
06
1:
1R
0M
0E
1Z
0^
1`
0N
#461000
1(
16
1M
1E
1N
1[
0_
1a
1L
0K
1I
1;
0<
1>
1$
0"
1!
#462000
0(
06
0M
0E
0N
#463000
1(
16
1M
1E
1N
#464000
0(
06
0M
0E
0N
#465000
1(
16
1M
1E
1N
#466000
0(
06
0M
0E
0N
#467000
1(
16
1M
1E
1N
#468000
0(
06
0M
0E
0N
#469000
1(
16
1M
1E
1N
#470000
0(
06
0M
0E
0N
#471000
1(
16
1M
1E
1N
#472000
0(
06
0M
0E
0N
#473000
1(
16
1M
1E
1N
#474000
0(
06
0M
0E
0N
#475000
1(
16
1M
1E
1N
#476000
0(
06
0M
0E
0N
#477000
1(
16
1M
1E
1N
#478000
0(
06
0M
0E
0N
#479000
1(
16
1M
1E
1N
#480000
0(
0,
0+
0*
1)
06
0:
09
08
17
1Q
0P
0O
0R
0M
0E
0T
1X
1^
0N
#481000
1(
16
1M
1E
1N
#482000
0(
06
0M
0E
0N
#483000
1(
16
1M
1E
1N
#484000
0(
06
0M
0E
0N
#485000
1(
16
1M
1E
1N
#486000
0(
06
0M
0E
0N
#487000
1(
16
1M
1E
1N
#488000
0(
06
0M
0E
0N
#489000
1(
16
1M
1E
1N
#490000
0(
06
0M
0E
0N
#491000
1(
16
1M
1E
1N
#492000
0(
06
0M
0E
0N
#493000
1(
16
1M
1E
1N
#494000
0(
06
0M
0E
0N
#495000
1(
16
1M
1E
1N
#496000
0(
06
0M
0E
0N
#497000
1(
16
1M
1E
1N
#498000
0(
06
0M
0E
0N
#499000
1(
16
1M
1E
1N
#500000
0(
1,
06
1:
1R
0M
0E
0X
0Z
0N
#501000
1(
16
1M
1E
1N
#502000
0(
06
0M
0E
0N
#503000
1(
16
1M
1E
1N
#504000
0(
06
0M
0E
0N
#505000
1(
16
1M
1E
1N
#506000
0(
06
0M
0E
0N
#507000
1(
16
1M
1E
1N
#508000
0(
06
0M
0E
0N
#509000
1(
16
1M
1E
1N
#510000
0(
06
0M
0E
0N
#511000
1(
16
1M
1E
1N
#512000
0(
06
0M
0E
0N
#513000
1(
16
1M
1E
1N
#514000
0(
06
0M
0E
0N
#515000
1(
16
1M
1E
1N
#516000
0(
06
0M
0E
0N
#517000
1(
16
1M
1E
1N
#518000
0(
06
0M
0E
0N
#519000
1(
16
1M
1E
1N
#520000
0(
0,
1+
06
0:
19
1O
0R
0M
0E
1X
1Z
0N
#521000
1(
16
1M
1E
1N
#522000
0(
06
0M
0E
0N
#523000
1(
16
1M
1E
1N
#524000
0(
06
0M
0E
0N
#525000
1(
16
1M
1E
1N
#526000
0(
06
0M
0E
0N
#527000
1(
16
1M
1E
1N
#528000
0(
06
0M
0E
0N
#529000
1(
16
1M
1E
1N
#530000
0(
06
0M
0E
0N
#531000
1(
16
1M
1E
1N
#532000
0(
06
0M
0E
0N
#533000
1(
16
1M
1E
1N
#534000
0(
06
0M
0E
0N
#535000
1(
16
1M
1E
1N
#536000
0(
06
0M
0E
0N
#537000
1(
16
1M
1E
1N
#538000
0(
06
0M
0E
0N
#539000
1(
16
1M
1E
1N
#540000
0(
1,
06
1:
1R
0M
0E
0X
0Z
0N
#541000
1(
16
1M
1E
1N
#542000
0(
06
0M
0E
0N
#543000
1(
16
1M
1E
1N
#544000
0(
06
0M
0E
0N
#545000
1(
16
1M
1E
1N
#546000
0(
06
0M
0E
0N
#547000
1(
16
1M
1E
1N
#548000
0(
06
0M
0E
0N
#549000
1(
16
1M
1E
1N
#550000
0(
06
0M
0E
0N
#551000
1(
16
1M
1E
1N
#552000
0(
06
0M
0E
0N
#553000
1(
16
1M
1E
1N
#554000
0(
06
0M
0E
0N
#555000
1(
16
1M
1E
1N
#556000
0(
06
0M
0E
0N
#557000
1(
16
1M
1E
1N
#558000
0(
06
0M
0E
0N
#559000
1(
16
1M
1E
1N
#560000
0(
0,
0+
1*
06
0:
09
18
1P
0O
0R
0M
0E
1T
1X
1Z
0N
#561000
1(
16
1M
1E
1N
1Y
1_
1K
1H
1<
1?
1%
1"
#562000
0(
06
0M
0E
0N
#563000
1(
16
1M
1E
1N
#564000
0(
06
0M
0E
0N
#565000
1(
16
1M
1E
1N
#566000
0(
06
0M
0E
0N
#567000
1(
16
1M
1E
1N
#568000
0(
06
0M
0E
0N
#569000
1(
16
1M
1E
1N
#570000
0(
06
0M
0E
0N
#571000
1(
16
1M
1E
1N
#572000
0(
06
0M
0E
0N
#573000
1(
16
1M
1E
1N
#574000
0(
06
0M
0E
0N
#575000
1(
16
1M
1E
1N
#576000
0(
06
0M
0E
0N
#577000
1(
16
1M
1E
1N
#578000
0(
06
0M
0E
0N
#579000
1(
16
1M
1E
1N
#580000
0(
1,
06
1:
1R
0M
0E
0X
0Z
0N
#581000
1(
16
1M
1E
1N
0Y
0[
0I
0H
0>
0?
0%
0$
#582000
0(
06
0M
0E
0N
#583000
1(
16
1M
1E
1N
#584000
0(
06
0M
0E
0N
#585000
1(
16
1M
1E
1N
#586000
0(
06
0M
0E
0N
#587000
1(
16
1M
1E
1N
#588000
0(
06
0M
0E
0N
#589000
1(
16
1M
1E
1N
#590000
0(
06
0M
0E
0N
#591000
1(
16
1M
1E
1N
#592000
0(
06
0M
0E
0N
#593000
1(
16
1M
1E
1N
#594000
0(
06
0M
0E
0N
#595000
1(
16
1M
1E
1N
#596000
0(
06
0M
0E
0N
#597000
1(
16
1M
1E
1N
#598000
0(
06
0M
0E
0N
#599000
1(
16
1M
1E
1N
#600000
0(
0,
1+
06
0:
19
1O
0R
0M
0E
0T
1X
1Z
0N
#601000
1(
16
1M
1E
1N
#602000
0(
06
0M
0E
0N
#603000
1(
16
1M
1E
1N
#604000
0(
06
0M
0E
0N
#605000
1(
16
1M
1E
1N
#606000
0(
06
0M
0E
0N
#607000
1(
16
1M
1E
1N
#608000
0(
06
0M
0E
0N
#609000
1(
16
1M
1E
1N
#610000
0(
06
0M
0E
0N
#611000
1(
16
1M
1E
1N
#612000
0(
06
0M
0E
0N
#613000
1(
16
1M
1E
1N
#614000
0(
06
0M
0E
0N
#615000
1(
16
1M
1E
1N
#616000
0(
06
0M
0E
0N
#617000
1(
16
1M
1E
1N
#618000
0(
06
0M
0E
0N
#619000
1(
16
1M
1E
1N
#620000
0(
1,
06
1:
1R
0M
0E
0X
0Z
0N
#621000
1(
16
1M
1E
1N
#622000
0(
06
0M
0E
0N
#623000
1(
16
1M
1E
1N
#624000
0(
06
0M
0E
0N
#625000
1(
16
1M
1E
1N
#626000
0(
06
0M
0E
0N
#627000
1(
16
1M
1E
1N
#628000
0(
06
0M
0E
0N
#629000
1(
16
1M
1E
1N
#630000
0(
06
0M
0E
0N
#631000
1(
16
1M
1E
1N
#632000
0(
06
0M
0E
0N
#633000
1(
16
1M
1E
1N
#634000
0(
06
0M
0E
0N
#635000
1(
16
1M
1E
1N
#636000
0(
06
0M
0E
0N
#637000
1(
16
1M
1E
1N
#638000
0(
06
0M
0E
0N
#639000
1(
16
1M
1E
1N
#640000
0(
0,
0+
0*
0)
06
0:
09
08
07
0Q
0P
0O
0R
0M
0E
0S
1T
1X
1Z
0N
