assignment1/simulation/qsim/Assignment1.msim.vcd
$comment
	File created using the following command:
		vcd file Assignment1.msim.vcd -direction
$end
$date
	Wed Aug 21 16:10:32 2019
$end
$version
	ModelSim Version 10.5b
$end
$timescale
	1ps
$end

$scope module sequential_vhd_vec_tst $end
$var wire 1 ! clk $end
$var wire 1 " input $end
$var wire 1 # output [1] $end
$var wire 1 $ output [0] $end
$var wire 1 % reset $end

$scope module i1 $end
$var wire 1 & gnd $end
$var wire 1 ' vcc $end
$var wire 1 ( unknown $end
$var wire 1 ) devoe $end
$var wire 1 * devclrn $end
$var wire 1 + devpor $end
$var wire 1 , ww_devoe $end
$var wire 1 - ww_devclrn $end
$var wire 1 . ww_devpor $end
$var wire 1 / ww_clk $end
$var wire 1 0 ww_reset $end
$var wire 1 1 ww_input $end
$var wire 1 2 ww_output [1] $end
$var wire 1 3 ww_output [0] $end
$var wire 1 4 \clk~inputclkctrl_INCLK_bus\ [3] $end
$var wire 1 5 \clk~inputclkctrl_INCLK_bus\ [2] $end
$var wire 1 6 \clk~inputclkctrl_INCLK_bus\ [1] $end
$var wire 1 7 \clk~inputclkctrl_INCLK_bus\ [0] $end
$var wire 1 8 \output[0]~output_o\ $end
$var wire 1 9 \output[1]~output_o\ $end
$var wire 1 : \clk~input_o\ $end
$var wire 1 ; \clk~inputclkctrl_outclk\ $end
$var wire 1 < \reset~input_o\ $end
$var wire 1 = \input~input_o\ $end
$var wire 1 > \current_state~6_combout\ $end
$var wire 1 ? \current_state.C~q\ $end
$var wire 1 @ \current_state~8_combout\ $end
$var wire 1 A \current_state.A~q\ $end
$var wire 1 B \current_state~7_combout\ $end
$var wire 1 C \current_state.B~q\ $end
$var wire 1 D \output~0_combout\ $end
$var wire 1 E \output[0]~reg0_q\ $end
$var wire 1 F \output~1_combout\ $end
$var wire 1 G \output[1]~reg0_q\ $end
$var wire 1 H \ALT_INV_clk~inputclkctrl_outclk\ $end
$upscope $end
$upscope $end
$enddefinitions $end
#0
$dumpvars
0!
1"
0%
0&
1'
x(
1)
1*
1+
1,
1-
1.
0/
00
11
08
09
0:
0;
0<
1=
1>
0?
1@
0A
0B
0C
0D
0E
0F
0G
1H
02
03
14
15
16
07
0#
0$
$end
#5000
1!
1/
1:
17
1;
0H
#10000
0!
0/
0:
07
0;
1H
1?
1A
1D
1F
#15000
1!
1/
1:
17
1;
0H
#20000
0!
0"
0/
01
0=
0:
07
0>
0@
0F
0;
1H
0?
0A
1E
1@
1B
0D
1F
18
13
1$
#25000
1!
1/
1:
17
1;
0H
#30000
0!
0/
0:
07
0;
1H
1A
1C
0E
1G
1D
0@
0B
0F
19
08
12
03
0$
1#
#35000
1!
1/
1:
17
1;
0H
#40000
0!
1"
0/
11
1=
0:
07
1>
1@
0D
0;
1H
1?
0C
0G
1D
1F
09
02
0#
#45000
1!
1/
1:
17
1;
0H
#50000
0!
0"
0/
01
0=
0:
07
0>
0@
0F
0;
1H
0?
0A
1E
1@
1B
0D
1F
18
13
1$
#55000
1!
1/
1:
17
1;
0H
#60000
0!
1"
0/
11
1=
0:
07
1>
0B
0F
0;
1H
1?
1A
0E
1D
1F
08
03
0$
#65000
1!
1/
1:
17
1;
0H
#70000
0!
0"
1%
0/
01
10
1<
0=
0:
07
0>
0@
0D
0F
0;
1H
0?
0A
#75000
1!
1/
1:
17
1;
0H
#80000
0!
0/
0:
07
0;
1H
#85000
1!
1/
1:
17
1;
0H
#90000
0!
0%
0/
00
0<
0:
07
1@
1B
1F
0;
1H
1A
1C
1G
1D
0@
0B
0F
19
12
1#
#95000
1!
1/
1:
17
1;
0H
